<svg width="9" height="400" viewBox="0 0 9 400" fill="none" xmlns="http://www.w3.org/2000/svg">
<line x1="4.5" y1="8" x2="4.50002" y2="388" stroke="black" stroke-dasharray="15 15"/>
<circle cx="4.5" cy="4.5" r="4.5" fill="black"/>
<circle cx="4.5" cy="395.5" r="4.5" fill="black"/>
</svg>
